{
	"pass" : "",
	"name" : "",
	"successMessage" : "",
	"TransactionID" : "",
	"Oferta_DataTable" : "",
    "Titular_NumContrato" : "",
    "Titular_DNI" : "",
	"Titular_Apellidos" : "",
	"Titular_Nombre" : "",
	"Titular_TelFijo" : "",
	"Titular_TelMovil" : "",
	"Titular_Email" : "",
	"Titular_EmailEDP" : "",
	"Titular_EmailCOR" : "",
	"Titular_IDPuntoSuministro" : "",
	"Titular_NumCuentaContrato" : "",
	"Titular_NumIC_Cliente" : "",
	"Titular_CUPS" : "",
	"Titular_Direccion_Piso" : "",
	"Titular_Distribuidor" : "",
	"Titular_Direccion_Sala" : "",
	"Titular_Direccion_Calle" : "",
	"Titular_Direccion_Numero" : "",
	"Titular_Direccion_CP" : "",
	"Titular_Direccion_Localidad" : "",
	"Titular_Direccion_Provincia" : "",
	"Titular_MercadoCliente" : "",
	"Titular_Idioma" : "",
	"Titular_UltimaOferta" : "",
	}